<?xml version="1.0" standalone="no"?>
<!DOCTYPE svg PUBLIC "-//W3C//DTD SVG 1.1//EN" "http://www.w3.org/Graphics/SVG/1.1/DTD/svg11.dtd" >
<svg xmlns="http://www.w3.org/2000/svg">
<defs>
  <font id="flaticon" horiz-adv-x="300.58708414872797">
    <font-face font-family="flaticon"
      units-per-em="300" ascent="300"
      descent="0" />
    <missing-glyph horiz-adv-x="0" />
    <glyph glyph-name="001-loupe"
      unicode="&#xF101;"
      horiz-adv-x="300" d="M296.3344107967696 21.3384634915674L211.0227439185164 106.6501303698206C227.5477778537319 127.0622357203543 237.4974853761194 152.9996777375221 237.4974853761194 181.2492065507173C237.4974853761194 246.7235671526646 184.2228103241179 299.998242204666 118.7484497221707 299.998242204666S0 246.7241530844426 0 181.2497924824953S53.2746750520015 62.5007568285466 118.7490356539487 62.5007568285466C146.9985644671439 62.5007568285466 172.9360064843117 72.4504643509341 193.3481118348454 88.9754982861495L278.6597787130985 3.6638314078963C281.09725490962 1.2263552113748 284.2970283493325 0.001171863556 287.4973877208231 0.001171863556S293.8975205320261 1.2263552113748 296.3349967285476 3.6638314078963C301.2222536889289 8.5510883682776 301.2222536889289 16.4512065311862 296.3344107967696 21.3384634915674zM118.7490356539487 87.5007080008984C67.0493452212381 87.5007080008984 24.9999511723518 129.5501020497847 24.9999511723518 181.2497924824953S67.0493452212381 274.9988769640922 118.7490356539487 274.9988769640922S212.4981201355456 232.9494829152059 212.4981201355456 181.2497924824953S170.4481401548813 87.5007080008984 118.7490356539487 87.5007080008984z" />
    <glyph glyph-name="001-loupe-1"
      unicode="&#x30;&#x30;&#x31;&#x2D;&#x6C;&#x6F;&#x75;&#x70;&#x65;"
      horiz-adv-x="300" d="M296.3344107967696 21.3384634915674L211.0227439185164 106.6501303698206C227.5477778537319 127.0622357203543 237.4974853761194 152.9996777375221 237.4974853761194 181.2492065507173C237.4974853761194 246.7235671526646 184.2228103241179 299.998242204666 118.7484497221707 299.998242204666S0 246.7241530844426 0 181.2497924824953S53.2746750520015 62.5007568285466 118.7490356539487 62.5007568285466C146.9985644671439 62.5007568285466 172.9360064843117 72.4504643509341 193.3481118348454 88.9754982861495L278.6597787130985 3.6638314078963C281.09725490962 1.2263552113748 284.2970283493325 0.001171863556 287.4973877208231 0.001171863556S293.8975205320261 1.2263552113748 296.3349967285476 3.6638314078963C301.2222536889289 8.5510883682776 301.2222536889289 16.4512065311862 296.3344107967696 21.3384634915674zM118.7490356539487 87.5007080008984C67.0493452212381 87.5007080008984 24.9999511723518 129.5501020497847 24.9999511723518 181.2497924824953S67.0493452212381 274.9988769640922 118.7490356539487 274.9988769640922S212.4981201355456 232.9494829152059 212.4981201355456 181.2497924824953S170.4481401548813 87.5007080008984 118.7490356539487 87.5007080008984z" />
    <glyph glyph-name="002-filter-results-button"
      unicode="&#xF102;"
      horiz-adv-x="300" d="M116.6666666666667 50H183.3333333333334V83.3333333333333H116.6666666666667V50zM0 250V216.6666666666667H300V250H0zM50 133.3333333333334H250V166.6666666666667H50V133.3333333333334z" />
    <glyph glyph-name="002-filter-results-button-1"
      unicode="&#x30;&#x30;&#x32;&#x2D;&#x66;&#x69;&#x6C;&#x74;&#x65;&#x72;&#x2D;&#x72;&#x65;&#x73;&#x75;&#x6C;&#x74;&#x73;&#x2D;&#x62;&#x75;&#x74;&#x74;&#x6F;&#x6E;"
      horiz-adv-x="300" d="M116.6666666666667 50H183.3333333333334V83.3333333333333H116.6666666666667V50zM0 250V216.6666666666667H300V250H0zM50 133.3333333333334H250V166.6666666666667H50V133.3333333333334z" />
    <glyph glyph-name="003-share"
      unicode="&#xF103;"
      horiz-adv-x="300.58708414872797" d="M300.587084148728 149.8119499021527L175.6688782778865 286.7906066536204V205.0666585127202H149.1102005870842C66.7578892367906 205.0666585127202 0 138.3087698630137 0 55.956457925636V12.6475356164383L11.796722113503 25.5748532289628C51.9042011741683 69.5190187866928 108.6541403131116 94.557240704501 168.1514495107633 94.557240704501H175.6688782778865V12.8332925636008zM300.587084148728 149.8119499021527" />
    <glyph glyph-name="003-share-1"
      unicode="&#x30;&#x30;&#x33;&#x2D;&#x73;&#x68;&#x61;&#x72;&#x65;"
      horiz-adv-x="300.58708414872797" d="M300.587084148728 149.8119499021527L175.6688782778865 286.7906066536204V205.0666585127202H149.1102005870842C66.7578892367906 205.0666585127202 0 138.3087698630137 0 55.956457925636V12.6475356164383L11.796722113503 25.5748532289628C51.9042011741683 69.5190187866928 108.6541403131116 94.557240704501 168.1514495107633 94.557240704501H175.6688782778865V12.8332925636008zM300.587084148728 149.8119499021527" />
    <glyph glyph-name="004-cancel"
      unicode="&#xF104;"
      horiz-adv-x="300" d="M166.5735027861274 149.9991210954666L296.5675848289359 279.9937890746308C301.1443337024732 284.5705379481681 301.1443337024732 291.9908359553986 296.5675848289359 296.5669988925803C291.9908359553985 301.1431618297621 284.570537948168 301.1437477661177 279.9943750109863 296.5669988925803L149.9997070318222 166.5723309134162L20.0056249890137 296.5669988925803C15.4288761154763 301.1437477661177 8.0085781082459 301.1437477661177 3.4324151710641 296.5669988925803C-1.1437477661176 291.990250019043 -1.1443337024732 284.5699520118125 3.4324151710641 279.9937890746308L133.4264972138726 149.9997070318222L3.4324151710641 20.0050390526581C-1.1443337024732 15.4282901791208 -1.1443337024732 8.0079921718903 3.4324151710641 3.4318292347085C5.720496639655 1.1437477661177 8.7199048439359 0 11.7193130482167 0C14.7187212524976 0 17.7175435204228 1.1437477661177 20.0062109253693 3.4318292347086L149.9997070318222 133.4259112775171L279.9937890746307 3.4318292347085C282.2818705432216 1.1437477661177 285.2812787475025 0 288.2806869517833 0S294.2789174239894 1.1437477661177 296.5675848289359 3.4318292347086C301.1443337024733 8.0085781082459 301.1443337024733 15.4288761154764 296.5675848289359 20.0050390526582L166.5735027861274 149.9991210954666z" />
    <glyph glyph-name="004-cancel-1"
      unicode="&#x30;&#x30;&#x34;&#x2D;&#x63;&#x61;&#x6E;&#x63;&#x65;&#x6C;"
      horiz-adv-x="300" d="M166.5735027861274 149.9991210954666L296.5675848289359 279.9937890746308C301.1443337024732 284.5705379481681 301.1443337024732 291.9908359553986 296.5675848289359 296.5669988925803C291.9908359553985 301.1431618297621 284.570537948168 301.1437477661177 279.9943750109863 296.5669988925803L149.9997070318222 166.5723309134162L20.0056249890137 296.5669988925803C15.4288761154763 301.1437477661177 8.0085781082459 301.1437477661177 3.4324151710641 296.5669988925803C-1.1437477661176 291.990250019043 -1.1443337024732 284.5699520118125 3.4324151710641 279.9937890746308L133.4264972138726 149.9997070318222L3.4324151710641 20.0050390526581C-1.1443337024732 15.4282901791208 -1.1443337024732 8.0079921718903 3.4324151710641 3.4318292347085C5.720496639655 1.1437477661177 8.7199048439359 0 11.7193130482167 0C14.7187212524976 0 17.7175435204228 1.1437477661177 20.0062109253693 3.4318292347086L149.9997070318222 133.4259112775171L279.9937890746307 3.4318292347085C282.2818705432216 1.1437477661177 285.2812787475025 0 288.2806869517833 0S294.2789174239894 1.1437477661177 296.5675848289359 3.4318292347086C301.1443337024733 8.0085781082459 301.1443337024733 15.4288761154764 296.5675848289359 20.0050390526582L166.5735027861274 149.9991210954666z" />
    <glyph glyph-name="005-plus"
      unicode="&#xF105;"
      horiz-adv-x="300" d="M288.28125 161.71875H161.71875V288.28125C161.71875 294.753515625 156.472265625 300 150 300C143.527734375 300 138.28125 294.753515625 138.28125 288.28125V161.71875H11.71875C5.246484375 161.71875 0 156.472265625 0 150S5.246484375 138.28125 11.71875 138.28125H138.28125V11.71875C138.28125 5.246484375 143.527734375 0 150 0S161.71875 5.246484375 161.71875 11.71875V138.28125H288.28125C294.753515625 138.28125 300 143.527734375 300 150C300 156.472265625 294.753515625 161.71875 288.28125 161.71875z" />
    <glyph glyph-name="005-plus-1"
      unicode="&#x30;&#x30;&#x35;&#x2D;&#x70;&#x6C;&#x75;&#x73;"
      horiz-adv-x="300" d="M288.28125 161.71875H161.71875V288.28125C161.71875 294.753515625 156.472265625 300 150 300C143.527734375 300 138.28125 294.753515625 138.28125 288.28125V161.71875H11.71875C5.246484375 161.71875 0 156.472265625 0 150S5.246484375 138.28125 11.71875 138.28125H138.28125V11.71875C138.28125 5.246484375 143.527734375 0 150 0S161.71875 5.246484375 161.71875 11.71875V138.28125H288.28125C294.753515625 138.28125 300 143.527734375 300 150C300 156.472265625 294.753515625 161.71875 288.28125 161.71875z" />
    <glyph glyph-name="006-menu"
      unicode="&#xF106;"
      horiz-adv-x="300" d="M176.5167634878917 289.0166907507443C191.1613697859588 274.3720844526772 191.1613697859588 250.6283519702069 176.5167634878917 235.9837456721397S138.1284247073542 221.3391393740726 123.4838184092871 235.9837456721397S108.83921211122 274.3720844526772 123.4838184092871 289.0166907507444C138.1278428101755 303.6612970488115 161.8715752926458 303.6612970488115 176.5167634878917 289.0166907507444M176.5167634878917 176.5161815907129C191.1613697859588 161.8715752926458 191.1613697859588 138.1278428101755 176.5167634878917 123.4832365121083S138.1284247073542 108.8386302140412 123.4838184092871 123.4832365121083S108.83921211122 161.8715752926458 123.4838184092871 176.5161815907129C138.1278428101755 191.1607878887801 161.8715752926458 191.1607878887801 176.5167634878917 176.5161815907129M176.5167634878917 64.016836225039C191.1613697859588 49.3722299269719 191.1613697859588 25.6284974445015 176.5167634878917 10.9838911464344S138.1284247073542 -3.6607151516327 123.4838184092871 10.9838911464344S108.83921211122 49.3722299269719 123.4838184092871 64.016836225039C138.1278428101755 78.6614425231062 161.8715752926458 78.6614425231062 176.5167634878917 64.016836225039" />
    <glyph glyph-name="006-menu-1"
      unicode="&#x30;&#x30;&#x36;&#x2D;&#x6D;&#x65;&#x6E;&#x75;"
      horiz-adv-x="300" d="M176.5167634878917 289.0166907507443C191.1613697859588 274.3720844526772 191.1613697859588 250.6283519702069 176.5167634878917 235.9837456721397S138.1284247073542 221.3391393740726 123.4838184092871 235.9837456721397S108.83921211122 274.3720844526772 123.4838184092871 289.0166907507444C138.1278428101755 303.6612970488115 161.8715752926458 303.6612970488115 176.5167634878917 289.0166907507444M176.5167634878917 176.5161815907129C191.1613697859588 161.8715752926458 191.1613697859588 138.1278428101755 176.5167634878917 123.4832365121083S138.1284247073542 108.8386302140412 123.4838184092871 123.4832365121083S108.83921211122 161.8715752926458 123.4838184092871 176.5161815907129C138.1278428101755 191.1607878887801 161.8715752926458 191.1607878887801 176.5167634878917 176.5161815907129M176.5167634878917 64.016836225039C191.1613697859588 49.3722299269719 191.1613697859588 25.6284974445015 176.5167634878917 10.9838911464344S138.1284247073542 -3.6607151516327 123.4838184092871 10.9838911464344S108.83921211122 49.3722299269719 123.4838184092871 64.016836225039C138.1278428101755 78.6614425231062 161.8715752926458 78.6614425231062 176.5167634878917 64.016836225039" />
    <glyph glyph-name="007-flags"
      unicode="&#xF107;"
      horiz-adv-x="300" d="M257.4978515625 263.7498046875C254.7931640625 265.323046875 251.4521484375001 265.323046875 248.7480468750001 263.7498046875C238.2732421875 257.9384765625 226.4771484375 254.925 214.4982421875 255C196.983984375 254.6126953125 180.04921875 261.2783203125 167.4984375 273.4998046875C153.009375 287.682421875 133.419140625 295.43203125 113.1486328125 294.999609375C96.823828125 295.1408203125 80.862890625 290.176171875 67.498828125 280.7994140625V285C67.498828125 293.283984375 60.7833984375 300 52.498828125 300C44.2142578125 300 37.498828125 293.2845703125 37.498828125 285V15C37.498828125 6.716015625 44.2142578125 0 52.498828125 0C60.7828125 0 67.498828125 6.7154296875 67.498828125 15V145.0001953125C69.155859375 145.15546875 70.734375 145.7794921875 72.0486328125 146.8001953125C83.9443359375 155.560546875 98.3765625 160.1953125 113.1486328125 160.0001953125C130.6951171875 160.4033203125 147.666796875 153.737109375 160.2486328125 141.500390625C174.71015625 127.33828125 194.26171875 119.58984375 214.498828125 120.0005859375C230.0080078125 119.8201171875 245.2201171875 124.2580078125 258.1986328125 132.7505859375C260.9759765625 134.675390625 262.59375 137.8728515625 262.4988281250001 141.25078125V255C262.53046875 258.6046875 260.6197265625 261.9474609375 257.4978515625 263.7498046875z" />
    <glyph glyph-name="007-flags-1"
      unicode="&#x30;&#x30;&#x37;&#x2D;&#x66;&#x6C;&#x61;&#x67;&#x73;"
      horiz-adv-x="300" d="M257.4978515625 263.7498046875C254.7931640625 265.323046875 251.4521484375001 265.323046875 248.7480468750001 263.7498046875C238.2732421875 257.9384765625 226.4771484375 254.925 214.4982421875 255C196.983984375 254.6126953125 180.04921875 261.2783203125 167.4984375 273.4998046875C153.009375 287.682421875 133.419140625 295.43203125 113.1486328125 294.999609375C96.823828125 295.1408203125 80.862890625 290.176171875 67.498828125 280.7994140625V285C67.498828125 293.283984375 60.7833984375 300 52.498828125 300C44.2142578125 300 37.498828125 293.2845703125 37.498828125 285V15C37.498828125 6.716015625 44.2142578125 0 52.498828125 0C60.7828125 0 67.498828125 6.7154296875 67.498828125 15V145.0001953125C69.155859375 145.15546875 70.734375 145.7794921875 72.0486328125 146.8001953125C83.9443359375 155.560546875 98.3765625 160.1953125 113.1486328125 160.0001953125C130.6951171875 160.4033203125 147.666796875 153.737109375 160.2486328125 141.500390625C174.71015625 127.33828125 194.26171875 119.58984375 214.498828125 120.0005859375C230.0080078125 119.8201171875 245.2201171875 124.2580078125 258.1986328125 132.7505859375C260.9759765625 134.675390625 262.59375 137.8728515625 262.4988281250001 141.25078125V255C262.53046875 258.6046875 260.6197265625 261.9474609375 257.4978515625 263.7498046875z" />
    <glyph glyph-name="008-youtube-symbol"
      unicode="&#xF108;"
      horiz-adv-x="300" d="M294.816 220.9145806451613C291.1432258064516 236.8691612903226 278.0934193548387 248.64 262.3834838709677 250.395870967742C225.1819354838709 254.5486451612903 187.5282580645161 254.5703225806452 150.048 254.5486451612903C112.5615483870968 254.5703225806452 74.9016774193548 254.5486451612903 37.700129032258 250.395870967742C21.9994838709677 248.64 8.9589677419355 236.8691612903226 5.2861935483871 220.9145806451613C0.0588387096774 198.1935483870968 0 173.3914838709678 0 149.9984516129032C0 126.6054193548387 0 101.8064516129032 5.2273548387097 79.0885161290323C8.893935483871 63.1370322580646 21.9375483870968 51.3661935483871 37.6474838709677 49.6072258064516C74.845935483871 45.4513548387097 112.5027096774194 45.4296774193548 149.9891612903226 45.4513548387097C187.4818064516129 45.4296774193548 225.1292903225806 45.4513548387097 262.3246451612904 49.6072258064516C278.0252903225807 51.3630967741936 291.0781935483871 63.133935483871 294.7509677419355 79.0885161290323C299.9814193548387 101.8095483870968 300 126.6085161290323 300 149.9984516129032C300 173.3914838709678 300.0433548387097 198.1935483870968 294.816 220.9145806451613zM111.2856774193548 103.4353548387097C111.2856774193548 136.6203870967742 111.2856774193548 169.4585806451613 111.2856774193548 202.6467096774194C143.0802580645161 186.0572903225807 174.6642580645161 169.5793548387097 206.6601290322581 152.8877419354839C174.7633548387097 136.3447741935484 143.1638709677419 119.965935483871 111.2856774193548 103.4353548387097z" />
    <glyph glyph-name="008-youtube-symbol-1"
      unicode="&#x30;&#x30;&#x38;&#x2D;&#x79;&#x6F;&#x75;&#x74;&#x75;&#x62;&#x65;&#x2D;&#x73;&#x79;&#x6D;&#x62;&#x6F;&#x6C;"
      horiz-adv-x="300" d="M294.816 220.9145806451613C291.1432258064516 236.8691612903226 278.0934193548387 248.64 262.3834838709677 250.395870967742C225.1819354838709 254.5486451612903 187.5282580645161 254.5703225806452 150.048 254.5486451612903C112.5615483870968 254.5703225806452 74.9016774193548 254.5486451612903 37.700129032258 250.395870967742C21.9994838709677 248.64 8.9589677419355 236.8691612903226 5.2861935483871 220.9145806451613C0.0588387096774 198.1935483870968 0 173.3914838709678 0 149.9984516129032C0 126.6054193548387 0 101.8064516129032 5.2273548387097 79.0885161290323C8.893935483871 63.1370322580646 21.9375483870968 51.3661935483871 37.6474838709677 49.6072258064516C74.845935483871 45.4513548387097 112.5027096774194 45.4296774193548 149.9891612903226 45.4513548387097C187.4818064516129 45.4296774193548 225.1292903225806 45.4513548387097 262.3246451612904 49.6072258064516C278.0252903225807 51.3630967741936 291.0781935483871 63.133935483871 294.7509677419355 79.0885161290323C299.9814193548387 101.8095483870968 300 126.6085161290323 300 149.9984516129032C300 173.3914838709678 300.0433548387097 198.1935483870968 294.816 220.9145806451613zM111.2856774193548 103.4353548387097C111.2856774193548 136.6203870967742 111.2856774193548 169.4585806451613 111.2856774193548 202.6467096774194C143.0802580645161 186.0572903225807 174.6642580645161 169.5793548387097 206.6601290322581 152.8877419354839C174.7633548387097 136.3447741935484 143.1638709677419 119.965935483871 111.2856774193548 103.4353548387097z" />
    <glyph glyph-name="009-like"
      unicode="&#xF109;"
      horiz-adv-x="300" d="M31.2498046875 168.75C14.025 168.75 0 154.725 0 137.5001953125V37.5C0 20.2751953125 14.025 6.2501953125 31.2498046875 6.2501953125H68.7498046875C75.7875 6.2501953125 82.262109375 8.625 87.4998046875 12.575390625V168.75H31.2498046875zM300 121.875C300 129.3873046875 297.0251953125 136.3875 291.8625 141.5501953125C297.7001953125 147.9375 300.675 156.500390625 299.8623046875 165.4125C298.3998046875 181.3001953125 284.087109375 193.7501953125 267.2625000000001 193.7501953125H190.05C193.875 205.362890625 199.9998046875 226.65 199.9998046875 243.75C199.9998046875 270.8625 176.9625 293.7498046875 162.4998046875 293.7498046875C149.5125 293.7498046875 140.237109375 286.4373046875 139.8375 286.1373046875C138.3626953125 284.949609375 137.5001953125 283.149609375 137.5001953125 281.25V238.8626953125L101.5001953125 160.875L100.0001953125 160.1126953125V26.1375C110.175 21.3375 123.0498046875 18.75 131.25 18.75H245.9876953125C259.6001953125 18.75 271.512890625 27.9251953125 274.3125 40.5873046875C275.7498046875 47.1 274.9125 53.6625 272.0501953125 59.3625C281.2875 64.0125 287.5001953125 73.5251953125 287.5001953125 84.375C287.5001953125 88.8 286.4876953125 93.0375 284.562890625 96.8748046875C293.8001953125 101.5248046875 300 111.0375 300 121.875z" />
    <glyph glyph-name="009-like-1"
      unicode="&#x30;&#x30;&#x39;&#x2D;&#x6C;&#x69;&#x6B;&#x65;"
      horiz-adv-x="300" d="M31.2498046875 168.75C14.025 168.75 0 154.725 0 137.5001953125V37.5C0 20.2751953125 14.025 6.2501953125 31.2498046875 6.2501953125H68.7498046875C75.7875 6.2501953125 82.262109375 8.625 87.4998046875 12.575390625V168.75H31.2498046875zM300 121.875C300 129.3873046875 297.0251953125 136.3875 291.8625 141.5501953125C297.7001953125 147.9375 300.675 156.500390625 299.8623046875 165.4125C298.3998046875 181.3001953125 284.087109375 193.7501953125 267.2625000000001 193.7501953125H190.05C193.875 205.362890625 199.9998046875 226.65 199.9998046875 243.75C199.9998046875 270.8625 176.9625 293.7498046875 162.4998046875 293.7498046875C149.5125 293.7498046875 140.237109375 286.4373046875 139.8375 286.1373046875C138.3626953125 284.949609375 137.5001953125 283.149609375 137.5001953125 281.25V238.8626953125L101.5001953125 160.875L100.0001953125 160.1126953125V26.1375C110.175 21.3375 123.0498046875 18.75 131.25 18.75H245.9876953125C259.6001953125 18.75 271.512890625 27.9251953125 274.3125 40.5873046875C275.7498046875 47.1 274.9125 53.6625 272.0501953125 59.3625C281.2875 64.0125 287.5001953125 73.5251953125 287.5001953125 84.375C287.5001953125 88.8 286.4876953125 93.0375 284.562890625 96.8748046875C293.8001953125 101.5248046875 300 111.0375 300 121.875z" />
    <glyph glyph-name="010-dislike"
      unicode="&#xF10A;"
      horiz-adv-x="300" d="M68.7498046875 293.7498046875H31.2498046875C14.025 293.7498046875 0 279.7248046875 0 262.5V162.4998046875C0 145.275 14.025 131.25 31.2498046875 131.25H87.4998046875V287.4251953125C82.2626953125 291.375 75.7875 293.7498046875 68.7498046875 293.7498046875zM300 178.125C300 188.9625 293.8001953125 198.4751953125 284.5623046875 203.1251953125C286.4871093750001 206.9625 287.499609375 211.212890625 287.499609375 215.625C287.499609375 226.4748046875 281.2869140625 235.9875 272.049609375 240.6375C274.9119140625 246.3375 275.7498046875 252.9 274.3119140625 259.4126953125C271.5123046875 272.0748046875 259.6001953125 281.25 245.9876953125 281.25H131.25C123.0498046875 281.25 110.175 278.6625 100.0001953125 273.8625V139.8873046875L101.5001953125 139.125L137.5001953125 61.125V18.75C137.5001953125 16.8498046875 138.3626953125 15.0498046875 139.8375 13.8626953125C140.2376953125 13.5626953125 149.5125 6.2501953125 162.4998046875 6.2501953125C176.9625 6.2501953125 199.9998046875 29.1375 199.9998046875 56.25C199.9998046875 73.35 193.875 94.6376953125 190.05 106.2498046875H267.2625000000001C284.0876953125 106.2498046875 298.3998046875 118.6998046875 299.8623046875 134.5875C300.675 143.5001953125 297.699609375 152.0625 291.8625 158.4498046875C297.0251953125 163.6125 300 170.6126953125 300 178.125z" />
    <glyph glyph-name="010-dislike-1"
      unicode="&#x30;&#x31;&#x30;&#x2D;&#x64;&#x69;&#x73;&#x6C;&#x69;&#x6B;&#x65;"
      horiz-adv-x="300" d="M68.7498046875 293.7498046875H31.2498046875C14.025 293.7498046875 0 279.7248046875 0 262.5V162.4998046875C0 145.275 14.025 131.25 31.2498046875 131.25H87.4998046875V287.4251953125C82.2626953125 291.375 75.7875 293.7498046875 68.7498046875 293.7498046875zM300 178.125C300 188.9625 293.8001953125 198.4751953125 284.5623046875 203.1251953125C286.4871093750001 206.9625 287.499609375 211.212890625 287.499609375 215.625C287.499609375 226.4748046875 281.2869140625 235.9875 272.049609375 240.6375C274.9119140625 246.3375 275.7498046875 252.9 274.3119140625 259.4126953125C271.5123046875 272.0748046875 259.6001953125 281.25 245.9876953125 281.25H131.25C123.0498046875 281.25 110.175 278.6625 100.0001953125 273.8625V139.8873046875L101.5001953125 139.125L137.5001953125 61.125V18.75C137.5001953125 16.8498046875 138.3626953125 15.0498046875 139.8375 13.8626953125C140.2376953125 13.5626953125 149.5125 6.2501953125 162.4998046875 6.2501953125C176.9625 6.2501953125 199.9998046875 29.1375 199.9998046875 56.25C199.9998046875 73.35 193.875 94.6376953125 190.05 106.2498046875H267.2625000000001C284.0876953125 106.2498046875 298.3998046875 118.6998046875 299.8623046875 134.5875C300.675 143.5001953125 297.699609375 152.0625 291.8625 158.4498046875C297.0251953125 163.6125 300 170.6126953125 300 178.125z" />
    <glyph glyph-name="011-menu-1"
      unicode="&#xF10B;"
      horiz-adv-x="300" d="M289.0161088535656 176.5167634878917C303.6607151516327 161.8721571898246 303.6607151516327 138.1284247073542 289.0161088535656 123.4838184092871S250.6277700730281 108.8392121112199 235.983163774961 123.4838184092871S221.3385574768939 161.8721571898245 235.983163774961 176.5167634878917S274.3715025554985 191.1613697859588 289.0161088535656 176.5167634878917M176.5167634878917 176.5167634878917C191.1613697859588 161.8721571898246 191.1613697859588 138.1284247073542 176.5167634878917 123.4838184092871S138.1284247073542 108.8392121112199 123.4838184092871 123.4838184092871S108.83921211122 161.8721571898245 123.4838184092871 176.5167634878917S161.8721571898246 191.1613697859588 176.5167634878917 176.5167634878917M64.016836225039 176.5167634878917C78.6614425231062 161.8721571898246 78.6614425231062 138.1284247073542 64.016836225039 123.4838184092871S25.6284974445016 108.8392121112199 10.9838911464344 123.4838184092871S-3.6607151516327 161.8721571898245 10.9838911464344 176.5167634878917S49.3722299269719 191.1613697859588 64.016836225039 176.5167634878917" />
    <glyph glyph-name="011-menu-1-1"
      unicode="&#x30;&#x31;&#x31;&#x2D;&#x6D;&#x65;&#x6E;&#x75;&#x2D;&#x31;"
      horiz-adv-x="300" d="M289.0161088535656 176.5167634878917C303.6607151516327 161.8721571898246 303.6607151516327 138.1284247073542 289.0161088535656 123.4838184092871S250.6277700730281 108.8392121112199 235.983163774961 123.4838184092871S221.3385574768939 161.8721571898245 235.983163774961 176.5167634878917S274.3715025554985 191.1613697859588 289.0161088535656 176.5167634878917M176.5167634878917 176.5167634878917C191.1613697859588 161.8721571898246 191.1613697859588 138.1284247073542 176.5167634878917 123.4838184092871S138.1284247073542 108.8392121112199 123.4838184092871 123.4838184092871S108.83921211122 161.8721571898245 123.4838184092871 176.5167634878917S161.8721571898246 191.1613697859588 176.5167634878917 176.5167634878917M64.016836225039 176.5167634878917C78.6614425231062 161.8721571898246 78.6614425231062 138.1284247073542 64.016836225039 123.4838184092871S25.6284974445016 108.8392121112199 10.9838911464344 123.4838184092871S-3.6607151516327 161.8721571898245 10.9838911464344 176.5167634878917S49.3722299269719 191.1613697859588 64.016836225039 176.5167634878917" />
    <glyph glyph-name="012-check-mark"
      unicode="&#xF10C;"
      horiz-adv-x="300" d="M216.307067578125 197.5959779296875C220.884704296875 193.0183412109375 220.884704296875 185.597991796875 216.307067578125 181.02264375L137.69073515625 102.4040220703125C133.1130984375 97.828674609375 125.6950376953125 97.828674609375 121.1174009765625 102.4040220703125L83.692932421875 139.8307798828125C79.115295703125 144.4061279296875 79.115295703125 151.82647734375 83.692932421875 156.4018248046875C88.2682798828125 160.9794615234375 95.688629296875 160.9794615234375 100.26397734375 156.4018248046875L129.4029234375 127.2628781250001L199.733733984375 197.5959779296875C204.311370703125 202.1713253906251 211.7317201171875 202.1713253906251 216.3070675781251 197.5959779296875zM300 150C300 67.087555078125 232.9010009765625 0 150 0C67.087555078125 0 0 67.0989990234375 0 150C0 232.912444921875 67.0989990234375 300 150 300C232.912444921875 300 300 232.9010009765625 300 150zM276.5625 150C276.5625 219.9577330078125 219.948577734375 276.5625 150 276.5625C80.0422669921875 276.5625 23.4375 219.948577734375 23.4375 150C23.4375 80.0422669921875 80.051422265625 23.4375 150 23.4375C219.9577330078125 23.4375 276.5625 80.051422265625 276.5625 150zM276.5625 150" />
    <glyph glyph-name="012-check-mark-1"
      unicode="&#x30;&#x31;&#x32;&#x2D;&#x63;&#x68;&#x65;&#x63;&#x6B;&#x2D;&#x6D;&#x61;&#x72;&#x6B;"
      horiz-adv-x="300" d="M216.307067578125 197.5959779296875C220.884704296875 193.0183412109375 220.884704296875 185.597991796875 216.307067578125 181.02264375L137.69073515625 102.4040220703125C133.1130984375 97.828674609375 125.6950376953125 97.828674609375 121.1174009765625 102.4040220703125L83.692932421875 139.8307798828125C79.115295703125 144.4061279296875 79.115295703125 151.82647734375 83.692932421875 156.4018248046875C88.2682798828125 160.9794615234375 95.688629296875 160.9794615234375 100.26397734375 156.4018248046875L129.4029234375 127.2628781250001L199.733733984375 197.5959779296875C204.311370703125 202.1713253906251 211.7317201171875 202.1713253906251 216.3070675781251 197.5959779296875zM300 150C300 67.087555078125 232.9010009765625 0 150 0C67.087555078125 0 0 67.0989990234375 0 150C0 232.912444921875 67.0989990234375 300 150 300C232.912444921875 300 300 232.9010009765625 300 150zM276.5625 150C276.5625 219.9577330078125 219.948577734375 276.5625 150 276.5625C80.0422669921875 276.5625 23.4375 219.948577734375 23.4375 150C23.4375 80.0422669921875 80.051422265625 23.4375 150 23.4375C219.9577330078125 23.4375 276.5625 80.051422265625 276.5625 150zM276.5625 150" />
    <glyph glyph-name="013-loading"
      unicode="&#xF10D;"
      horiz-adv-x="299.988614800759" d="M121.9354838709678 264.910815939279A35.0891840607211 35.0891840607211 0 0 1 192.1138519924099 264.910815939279A35.0891840607211 35.0891840607211 0 0 1 121.9354838709678 264.910815939279M135.9734345351044 21.0512333965845A21.0512333965844 21.0512333965844 0 0 1 178.0759013282732 21.0512333965845A21.0512333965844 21.0512333965844 0 0 1 135.9734345351044 21.0512333965845M39.2220113851992 229.2068311195446A31.5825426944972 31.5825426944972 0 0 1 102.3870967741936 229.2068311195446A31.5825426944972 31.5825426944972 0 0 1 39.2220113851992 229.2068311195446M225.7001897533207 56.7779886148008A17.5445920303605 17.5445920303605 0 0 1 260.7893738140417 56.7779886148008A17.5445920303605 17.5445920303605 0 0 1 225.7001897533207 56.7779886148008M7.0246679316888 142.9753320683112A28.0645161290323 28.0645161290323 0 0 1 63.1537001897533 142.9753320683112A28.0645161290323 28.0645161290323 0 0 1 7.0246679316888 142.9753320683112M264.92220113852 142.9867172675522A14.0265654648956 14.0265654648956 0 0 1 292.9753320683112 142.9867172675522A14.0265654648956 14.0265654648956 0 0 1 264.92220113852 142.9867172675522M53.4421252371916 74.1176470588235C43.8444022770399 64.5199240986717 43.8444022770399 48.9905123339659 53.4421252371916 39.392789373814C63.0284629981025 29.7950664136623 78.5806451612903 29.7950664136623 88.1669829222011 39.392789373814C97.7647058823529 48.9905123339659 97.7647058823529 64.5199240986717 88.1669829222011 74.1176470588235C78.5806451612903 83.7267552182163 63.0398481973435 83.8178368121442 53.4421252371916 74.1176470588235zM232.7134724857685 229.2068311195446A10.5199240986717 10.5199240986717 0 0 1 253.753320683112 229.2068311195446A10.5199240986717 10.5199240986717 0 0 1 232.7134724857685 229.2068311195446" />
    <glyph glyph-name="013-loading-1"
      unicode="&#x30;&#x31;&#x33;&#x2D;&#x6C;&#x6F;&#x61;&#x64;&#x69;&#x6E;&#x67;"
      horiz-adv-x="299.988614800759" d="M121.9354838709678 264.910815939279A35.0891840607211 35.0891840607211 0 0 1 192.1138519924099 264.910815939279A35.0891840607211 35.0891840607211 0 0 1 121.9354838709678 264.910815939279M135.9734345351044 21.0512333965845A21.0512333965844 21.0512333965844 0 0 1 178.0759013282732 21.0512333965845A21.0512333965844 21.0512333965844 0 0 1 135.9734345351044 21.0512333965845M39.2220113851992 229.2068311195446A31.5825426944972 31.5825426944972 0 0 1 102.3870967741936 229.2068311195446A31.5825426944972 31.5825426944972 0 0 1 39.2220113851992 229.2068311195446M225.7001897533207 56.7779886148008A17.5445920303605 17.5445920303605 0 0 1 260.7893738140417 56.7779886148008A17.5445920303605 17.5445920303605 0 0 1 225.7001897533207 56.7779886148008M7.0246679316888 142.9753320683112A28.0645161290323 28.0645161290323 0 0 1 63.1537001897533 142.9753320683112A28.0645161290323 28.0645161290323 0 0 1 7.0246679316888 142.9753320683112M264.92220113852 142.9867172675522A14.0265654648956 14.0265654648956 0 0 1 292.9753320683112 142.9867172675522A14.0265654648956 14.0265654648956 0 0 1 264.92220113852 142.9867172675522M53.4421252371916 74.1176470588235C43.8444022770399 64.5199240986717 43.8444022770399 48.9905123339659 53.4421252371916 39.392789373814C63.0284629981025 29.7950664136623 78.5806451612903 29.7950664136623 88.1669829222011 39.392789373814C97.7647058823529 48.9905123339659 97.7647058823529 64.5199240986717 88.1669829222011 74.1176470588235C78.5806451612903 83.7267552182163 63.0398481973435 83.8178368121442 53.4421252371916 74.1176470588235zM232.7134724857685 229.2068311195446A10.5199240986717 10.5199240986717 0 0 1 253.753320683112 229.2068311195446A10.5199240986717 10.5199240986717 0 0 1 232.7134724857685 229.2068311195446" />
  </font>
</defs>
</svg>
